
<svg xmlns="http://www.w3.org/2000/svg" width="988" height="253">
  <path fill="#6F57A5" d="M193.81 66.506l-35.915-32.945-5.052 5.506 29.929 27.438H64.803l29.929-27.462-5.052-5.507-35.915 32.97h-.024v21.718c0 9.816 9.458 17.813 21.07 17.813h22.147c11.612 0 21.07-7.997 21.07-17.813v-14.27h11.493v14.271c0 9.816 9.458 17.813 21.071 17.813h22.148c11.612 0 21.07-7.997 21.07-17.813V66.506z"/>
  <g fill="#4C4369">
    <path d="M316.981 93.337c-13.462 0-16.828-3.707-16.828-12.232v-2.131c0-8.525 3.366-12.232 16.828-12.232h17.576c0-6.208-1.87-7.413-7.199-7.413h-22.344v-9.174h23.56c13.463 0 16.829 4.633 16.829 15.475v27.708h-28.422zm-5.983-12.88c0 2.966 1.87 3.707 7.199 3.707h16.361v-9.452h-16.361c-5.329 0-7.199.741-7.199 3.707v2.038zM364.564 50.155l11.967 34.286 11.593-34.286h11.032l11.873 34.286 11.687-34.286h12.621l-15.613 43.183H402.99l-9.349-26.503-9.255 26.503h-16.735l-15.707-43.183h12.62zM483.947 93.337h-25.242c-13.557 0-16.829-4.541-16.829-15.476V65.629c0-10.841 3.272-15.475 16.829-15.475h10.751c13.557 0 16.828 4.633 16.828 15.475v10.102h-33.563v1.482c0 5.468 1.869 6.95 7.198 6.95h24.027v9.174zm-31.226-25.576h22.718v-1.482c0-5.467-1.683-6.95-7.198-6.95h-8.321c-5.329 0-7.198 1.483-7.198 6.95v1.482zM538.167 59.329h-20.755c-5.235 0-7.946.742-7.946 3.707v1.02c0 2.872 2.711 3.706 7.946 3.706h7.199c13.462 0 17.576 4.541 17.576 12.232v1.111c0 7.691-4.114 12.232-17.576 12.232H498.62v-9.174h24.775c5.329 0 7.946-.741 7.946-3.707v-1.02c0-2.872-2.617-3.706-7.946-3.706h-7.105c-13.556 0-17.67-4.541-17.67-12.232v-1.112c0-7.691 4.114-12.232 17.67-12.232h21.877v9.175zM554.711 65.629c0-10.841 3.272-15.475 16.829-15.475h12.34c13.557 0 16.829 4.633 16.829 15.475v12.232c0 10.935-3.272 15.476-16.829 15.476h-12.34c-13.557 0-16.829-4.541-16.829-15.476V65.629zm35.153.65c0-5.467-1.683-6.95-7.198-6.95h-9.91c-5.329 0-7.198 1.483-7.198 6.95v10.935c0 5.468 1.869 6.95 7.198 6.95h9.91c5.516 0 7.198-1.482 7.198-6.95V66.279zM615.384 93.337V50.155h54.599c13.556 0 16.828 4.633 16.828 15.475v27.708h-10.845V66.279c0-5.467-1.683-6.95-7.199-6.95H656.52v34.009h-10.845V59.329h-19.446v34.009h-10.845zM741.217 93.337h-25.242c-13.557 0-16.829-4.541-16.829-15.476V65.629c0-10.841 3.272-15.475 16.829-15.475h10.751c13.557 0 16.828 4.633 16.828 15.475v10.102h-33.563v1.482c0 5.468 1.869 6.95 7.198 6.95h24.027v9.174zm-31.225-25.576h22.718v-1.482c0-5.467-1.683-6.95-7.198-6.95h-8.321c-5.329 0-7.198 1.483-7.198 6.95v1.482z"/>
  </g>
  <path fill="#6F57A5" d="M185.319 144.731h-50.013a7.501 7.501 0 0 0-7.502 7.502v7.502h-7.502a7.502 7.502 0 0 0-7.502 7.502v50.014a7.502 7.502 0 0 0 7.502 7.502h50.014a7.502 7.502 0 0 0 7.502-7.502v-7.502h7.502a7.502 7.502 0 0 0 7.502-7.502v-50.014a7.503 7.503 0 0 0-7.503-7.502zm-15.942 72.519H121.24a.938.938 0 0 1-.938-.938v-48.139c0-.518.42-.938.938-.938h6.564v35.01a7.502 7.502 0 0 0 7.502 7.502h35.009v6.564c0 .52-.419.939-.938.939zm15.004-15.003h-48.138a.938.938 0 0 1-.938-.938V153.17c0-.518.419-.938.938-.938h48.138c.518 0 .938.42.938.938v48.138c0 .519-.42.939-.938.939z"/>
  <g fill="#4C4369">
    <path d="M380.033 200.836h-24.401c-13.556 0-16.828-4.541-16.828-15.476v-12.231c0-10.842 3.272-15.476 16.828-15.476h24.401v9.174h-23.186c-5.329 0-7.199 1.483-7.199 6.95v10.935c0 5.468 1.87 6.95 7.199 6.95h23.186v9.174zM390.22 173.129c0-10.842 3.272-15.476 16.828-15.476h12.341c13.557 0 16.828 4.634 16.828 15.476v12.231c0 10.935-3.271 15.476-16.828 15.476h-12.341c-13.556 0-16.828-4.541-16.828-15.476v-12.231zm35.153.649c0-5.467-1.683-6.95-7.198-6.95h-9.91c-5.33 0-7.199 1.483-7.199 6.95v10.935c0 5.468 1.869 6.95 7.199 6.95h9.91c5.516 0 7.198-1.482 7.198-6.95v-10.935zM450.893 200.836v-43.183h54.598c13.557 0 16.828 4.634 16.828 15.476v27.707h-10.844v-27.059c0-5.467-1.684-6.95-7.199-6.95h-12.248v34.009h-10.844v-34.009h-19.447v34.009h-10.844zM536.245 218.35v-60.696h27.58c13.461 0 16.734 4.634 16.734 15.476v12.231c0 10.935-3.273 15.476-16.734 15.476h-16.736v17.514h-10.844zm33.468-44.572c0-5.467-1.775-6.95-7.105-6.95h-15.52v24.835h15.52c5.33 0 7.105-1.482 7.105-6.95v-10.935zM609.069 200.836c-13.463 0-16.828-3.707-16.828-12.232v-2.131c0-8.525 3.365-12.232 16.828-12.232h17.576c0-6.209-1.869-7.413-7.199-7.413h-22.344v-9.174h23.561c13.461 0 16.828 4.634 16.828 15.476v27.707h-28.422zm-5.983-12.88c0 2.966 1.869 3.707 7.197 3.707h16.361v-9.452h-16.361c-5.328 0-7.197.741-7.197 3.707v2.038zM676.098 173.129c.094-3.707-1.496-6.302-7.199-6.302h-6.639v34.009h-10.844v-43.183h18.697c13.463 0 16.828 4.634 16.828 15.476h-10.843zM690.586 157.654h17.668v43.183H697.41v-34.009h-6.824v-9.174zm6.825-16.587h10.844v10.008h-10.844v-10.008zM761.637 166.828h-20.756c-5.234 0-7.945.741-7.945 3.707v1.019c0 2.873 2.711 3.707 7.945 3.707h7.199c13.463 0 17.576 4.541 17.576 12.232v1.111c0 7.691-4.113 12.232-17.576 12.232h-25.99v-9.174h24.775c5.328 0 7.945-.741 7.945-3.707v-1.02c0-2.872-2.617-3.706-7.945-3.706h-7.105c-13.557 0-17.67-4.541-17.67-12.232v-1.112c0-7.691 4.113-12.231 17.67-12.231h21.877v9.174zM778.18 173.129c0-10.842 3.273-15.476 16.83-15.476h12.34c13.557 0 16.828 4.634 16.828 15.476v12.231c0 10.935-3.271 15.476-16.828 15.476h-12.34c-13.557 0-16.83-4.541-16.83-15.476v-12.231zm35.153.649c0-5.467-1.682-6.95-7.197-6.95h-9.91c-5.33 0-7.199 1.483-7.199 6.95v10.935c0 5.468 1.869 6.95 7.199 6.95h9.91c5.516 0 7.197-1.482 7.197-6.95v-10.935zM838.854 200.836v-43.183h26.738c13.463 0 16.828 4.634 16.828 15.476v27.707h-10.846v-27.059c0-5.467-1.682-6.95-7.199-6.95h-14.678v34.009h-10.843zM934.303 166.828h-20.756c-5.234 0-7.945.741-7.945 3.707v1.019c0 2.873 2.711 3.707 7.945 3.707h7.199c13.463 0 17.576 4.541 17.576 12.232v1.111c0 7.691-4.113 12.232-17.576 12.232h-25.99v-9.174h24.775c5.328 0 7.945-.741 7.945-3.707v-1.02c0-2.872-2.617-3.706-7.945-3.706h-7.105c-13.557 0-17.67-4.541-17.67-12.232v-1.112c0-7.691 4.113-12.231 17.67-12.231h21.877v9.174z"/>
  </g>
</svg>